  _   _______  ______  __  ___
 | | / / __/ |/ / __ \/  |/  /
 | |/ / _//    / /_/ / /|_/ / 
 |___/___/_/|_/\____/_/__/_/__
    / __/  |/  / _ |/ ___/ __/
   / _// /|_/ / __ / /___\ \  
  /___/_/  /_/_/ |_\___/___/  
