

 __     __                                  
 \ \   / /__ _ __   ___  _ __ ___           
  \ \ / / _ \ '_ \ / _ \| '_ ` _ \          
   \ V /  __/ | | | (_) | | | | | |         
    \_/ \___|_|_|_|\___/|_| |_| |_|         
            | ____|_ __ ___   __ _  ___ ___ 
            |  _| | '_ ` _ \ / _` |/ __/ __|
            | |___| | | | | | (_| | (__\__ \
            |_____|_| |_| |_|\__,_|\___|___/
                                            

